{
  "type": "service_account",
  "project_id": "push-notifications-62db2",
  "private_key_id": "0d1071da0029c02c5117f29d16112ad706727116",
  "private_key": "-----BEGIN PRIVATE KEY-----\nMIIEvQIBADANBgkqhkiG9w0BAQEFAASCBKcwggSjAgEAAoIBAQCey60SVNtgr8ar\nNYOrnB29sdpXatTlGnll33IdaB1V7hYN8cnTKk6T7bijWaTybBFZTEtIWTVg9/vt\nMTyW+iJs0LRKL3CiaHyF8wrY6QMpNiZUEzs3q+uS+5YAzwG9xAOUyQoj3jZV24UT\nd2iynfUkVkgcv/0GdTnZnlqnyga2f/BMhvQXaSKwH3wIGcInNsLvB2V2xtz+Ht4u\nur06jEwohad5OQFWjmvQ0IFA4D8/g9BKntStB1sEoiH0yYC/pQJ6uUATHXb0uqEy\nFzQ1QSgnylXxYKwr+8fPV2SutYvr9q9ttkmKp4otH0dyFme0b5OOWGSLA7yhsOnW\nqSb6V9uFAgMBAAECggEAOh0/LzzH9pgNxJ22nOjrB3/d8O0jkd8A+7PtTu7KAac7\nAgpxeur6S/ANiRanI6NCLCScTpN7Ugwfcjx5OKW9UIaG3LmE5qMHo3wBhcWtBvmO\nyGkrXGH6OlYBnTUlJX5lcx+qKttJll1a0/d45Rmi3BQJmx/2KVVggRCPi+WHVGVl\neLybz6VNEW8X3tXd9Esb5tuLaJxXUjUo8faBpT+IwXhMcXqqmkg7lUjAs5BRmKCS\nrDnDQsopcL46R3DzvtDFmut5MOklRJCfUFAQGnQyYbgjaC2LtuABUCqJjTTSeQSC\nbWFGN/J9aXNbp7bFn0m4C/8AaO3brM8FKMTnPdieRwKBgQDPY3OeE+Z0AZqGNwUP\nkAbwQ93JjeEWj0l1ccbHAthhxA/cLq+hIx08yGivVzV09GOsYzEsyLGvLQOUrLVW\nXRPDpZAU37UtN6L2IM50ZZB+9uyuXQdHLhd5lTTPX8HU48P0HsyF+YkRlhhMw2pO\n9QCAj17qgDs9J2MfCGTzd4OkOwKBgQDEBFyT07EVV8Su92V6NK4KgJovgIi+v1mO\njZ8gjo/zdEh5n/H950GJ08lhva5ir4/bcYCQbk6oAZHqBbakT8QFObR1IIspeGCT\nRYGBvo5J2Ekm6sHr/Iiv42n8reJN8numEE+A1VpV0O2uh/GrLty5tvb/Ajx0U9LY\nBDnWSnVDPwKBgQCGA7A84IM1R6wBOyCsE9hH/rMdge+IUoOXvzRCehY15yqQkCKy\nMCy+kIsFc4d50ktupJKsa+xWVPJRauGrs24IKb7XnlBHrgJCpqSDFvau9QWxDzCa\n0LAew0pjD3AEEEMaR6TGlp/6m1GMmWLjLvNqIDunscGWHROyhAwoQHzy7QKBgCC3\nAaSCflmrjl4NWFhvFmUWVaV79FaxpQbPyDEs2gWt8LKr6T2RLTUNrdysRcCewInF\nhcmVP3d2252NWpBN589fdCjgR5miR6wMu7Kl1SWp/XuLTtZODZodgID1nIGZ6N0s\nd7hu42bTOfgZJFKHvbsZOFwTSXe4zcXT3rtPLgcNAoGAL+ScSHLW1V78GPqFSKKB\nVwz1Wum3AkS351Clp+8eUvEgsRmEE0YoMjXAkS9bctMdy9K7HptIRs8TW6+d+htI\nIkS2FLqWbsSxvpAWS9A3wd8kK2nAtqzcaJwI5f/6E8rcZo+hLHbvFHKSGudKL7KC\no8pFtLDtsReW+YoghHAchVc=\n-----END PRIVATE KEY-----\n",
  "client_email": "firebase-adminsdk-di6bm@push-notifications-62db2.iam.gserviceaccount.com",
  "client_id": "110483179328765859478",
  "auth_uri": "https://accounts.google.com/o/oauth2/auth",
  "token_uri": "https://oauth2.googleapis.com/token",
  "auth_provider_x509_cert_url": "https://www.googleapis.com/oauth2/v1/certs",
  "client_x509_cert_url": "https://www.googleapis.com/robot/v1/metadata/x509/firebase-adminsdk-di6bm%40push-notifications-62db2.iam.gserviceaccount.com"
}